C:\Users\sidne\Documents\Blockbit\Blockbit\TestesBlockbit\TestesBlockbit\src\test\java\enums\ByValue.java
C:\Users\sidne\Documents\Blockbit\Blockbit\TestesBlockbit\TestesBlockbit\src\test\java\pages\PageFormularioDownloadCertificado.java
C:\Users\sidne\Documents\Blockbit\Blockbit\TestesBlockbit\TestesBlockbit\src\test\java\pages\PagePrincipal.java
C:\Users\sidne\Documents\Blockbit\Blockbit\TestesBlockbit\TestesBlockbit\src\test\java\Testes\TestesBlockbit.java
C:\Users\sidne\Documents\Blockbit\Blockbit\TestesBlockbit\TestesBlockbit\src\test\java\pages\PageAlertaSeguranca.java
C:\Users\sidne\Documents\Blockbit\Blockbit\TestesBlockbit\TestesBlockbit\src\test\java\maps\BlockbitMap.java
C:\Users\sidne\Documents\Blockbit\Blockbit\TestesBlockbit\TestesBlockbit\src\test\java\core\Driver.java
C:\Users\sidne\Documents\Blockbit\Blockbit\TestesBlockbit\TestesBlockbit\src\test\java\core\Element.java
C:\Users\sidne\Documents\Blockbit\Blockbit\TestesBlockbit\TestesBlockbit\src\test\java\pages\PageLogin.java
